🗳️ Cost of Living & Marginal Seats in Victoria: A Data-Driven Political Insight
…
1.5 Enrolment Data

enrolment_div <- read_csv("data/GeneralEnrolmentByDivisionDownload-27966.csv", skip = 1)

enrolment_div %>% mutate(DivisionNm = toupper(DivisionNm)) %>%
left_join(enrolment_div ,
          by = "DivisionNm")

## # A tibble: 151 × 21
##    DivisionID.x DivisionNm StateAb.x CloseOfRollsEnrolment.x
##           <dbl> <chr>      <chr>                       <dbl>
##  1          179 ADELAIDE   SA                         130151
##  2          197 ASTON      VIC                        109826
##  3          198 BALLARAT   VIC                        110704
##  4          103 BANKS      NSW                        107786
##  5          180 BARKER     SA                         123518
##  6          104 BARTON     NSW                        110484
##  7          192 BASS       TAS                         79433
##  8          318 BEAN       ACT                        109557
##  9          200 BENDIGO    VIC                        112498
## 10          105 BENNELONG  NSW                        115030
## # ℹ 141 more rows
## # ℹ 17 more variables: NotebookRollAdditions.x <dbl>,
## #   NotebookRollDeletions.x <dbl>, ReinstatementsPostal.x <dbl>,
## #   ReinstatementsPrePoll.x <dbl>, ReinstatementsAbsent.x <dbl>,
## #   ReinstatementsProvisional.x <dbl>, Enrolment.x <dbl>, DivisionID.y <dbl>,
## #   StateAb.y <chr>, CloseOfRollsEnrolment.y <dbl>,
## #   NotebookRollAdditions.y <dbl>, NotebookRollDeletions.y <dbl>, …

enrolment_div %>%
  select(1,2,3,11)

## # A tibble: 151 × 4
##    DivisionID DivisionNm StateAb Enrolment
##         <dbl> <chr>      <chr>       <dbl>
##  1        179 Adelaide   SA         129960
##  2        197 Aston      VIC        109705
##  3        198 Ballarat   VIC        110570
##  4        103 Banks      NSW        107700
##  5        180 Barker     SA         123326
##  6        104 Barton     NSW        110371
##  7        192 Bass       TAS         79322
##  8        318 Bean       ACT        109432
##  9        200 Bendigo    VIC        112354
## 10        105 Bennelong  NSW        114942
## # ℹ 141 more rows
…
