ðŸ“ˆ Forecasting Food Retail Turnover in Western Australia
…
12.2 ðŸ“ˆ Forecast (2-Year
Horizon)

retail_test_arima <- retail_arima_fit|>
  forecast(h = "2 years") 

retail_test_arima

## # A fable: 96 x 6 [1M]
## # Key:     State, Industry, .model [4]
##    State             Industry       .model    Month Turnover .mean
##    <chr>             <chr>          <chr>     <mth>   <dist> <dbl>
##  1 Western Australia Food retailing auto   2021 Jan    t(NA)    NA
##  2 Western Australia Food retailing auto   2021 Feb    t(NA)    NA
##  3 Western Australia Food retailing auto   2021 Mar    t(NA)    NA
##  4 Western Australia Food retailing auto   2021 Apr    t(NA)    NA
##  5 Western Australia Food retailing auto   2021 May    t(NA)    NA
##  6 Western Australia Food retailing auto   2021 Jun    t(NA)    NA
##  7 Western Australia Food retailing auto   2021 Jul    t(NA)    NA
##  8 Western Australia Food retailing auto   2021 Aug    t(NA)    NA
##  9 Western Australia Food retailing auto   2021 Sep    t(NA)    NA
## 10 Western Australia Food retailing auto   2021 Oct    t(NA)    NA
## # â„¹ 86 more rows
…
13.1 ðŸ“Š 2-Year Forecast
(Test Set)

retail_test_ets <- retail_ets_fit |>
  forecast(h = "2 years") 

retail_test_ets

## # A fable: 96 x 6 [1M]
## # Key:     State, Industry, .model [4]
##    State             Industry       .model    Month           Turnover .mean
##    <chr>             <chr>          <chr>     <mth>             <dist> <dbl>
##  1 Western Australia Food retailing ets    2021 Jan t(N(7.3, 0.00082)) 1427.
##  2 Western Australia Food retailing ets    2021 Feb t(N(7.2, 0.00091)) 1352.
##  3 Western Australia Food retailing ets    2021 Mar   t(N(7.3, 0.001)) 1477.
##  4 Western Australia Food retailing ets    2021 Apr  t(N(7.3, 0.0011)) 1419.
##  5 Western Australia Food retailing ets    2021 May  t(N(7.3, 0.0012)) 1437.
##  6 Western Australia Food retailing ets    2021 Jun  t(N(7.2, 0.0013)) 1384.
##  7 Western Australia Food retailing ets    2021 Jul  t(N(7.3, 0.0014)) 1431.
##  8 Western Australia Food retailing ets    2021 Aug  t(N(7.3, 0.0016)) 1452.
##  9 Western Australia Food retailing ets    2021 Sep  t(N(7.3, 0.0017)) 1430.
## 10 Western Australia Food retailing ets    2021 Oct  t(N(7.3, 0.0018)) 1497.
## # â„¹ 86 more rows
…
## # A mable: 1 x 3
## # Key:     State, Industry [1]
##   State             Industry                              ma
##   <chr>             <chr>                            <model>
## 1 Western Australia Food retailing <ARIMA(0,1,1)(0,1,1)[12]>

fc_arima <- data_fit_arima_full |>
  forecast(h = "2 years") 
  
fc_arima

## # A fable: 24 x 6 [1M]
## # Key:     State, Industry, .model [1]
##    State             Industry       .model    Month          Turnover .mean
##    <chr>             <chr>          <chr>     <mth>            <dist> <dbl>
##  1 Western Australia Food retailing ma     2023 Jan  t(N(10, 0.0022)) 1554.
##  2 Western Australia Food retailing ma     2023 Feb t(N(9.9, 0.0025)) 1438.
##  3 Western Australia Food retailing ma     2023 Mar  t(N(10, 0.0027)) 1604.
##  4 Western Australia Food retailing ma     2023 Apr   t(N(10, 0.003)) 1524.
##  5 Western Australia Food retailing ma     2023 May  t(N(10, 0.0032)) 1548.
##  6 Western Australia Food retailing ma     2023 Jun t(N(9.9, 0.0034)) 1490.
##  7 Western Australia Food retailing ma     2023 Jul  t(N(10, 0.0037)) 1546.
##  8 Western Australia Food retailing ma     2023 Aug  t(N(10, 0.0039)) 1566.
##  9 Western Australia Food retailing ma     2023 Sep  t(N(10, 0.0042)) 1548.
## 10 Western Australia Food retailing ma     2023 Oct  t(N(10, 0.0044)) 1614.
## # â„¹ 14 more rows
…
## # A mable: 1 x 3
## # Key:     State, Industry [1]
##   State             Industry                ETS
##   <chr>             <chr>               <model>
## 1 Western Australia Food retailing <ETS(A,A,A)>

fc_ets <- data_fit_ets_full |>
  forecast(h = "2 years") 
  
fc_ets

## # A fable: 24 x 6 [1M]
## # Key:     State, Industry, .model [1]
##    State             Industry       .model    Month           Turnover .mean
##    <chr>             <chr>          <chr>     <mth>             <dist> <dbl>
##  1 Western Australia Food retailing ETS    2023 Jan t(N(7.3, 0.00081)) 1542.
##  2 Western Australia Food retailing ETS    2023 Feb t(N(7.3, 0.00091)) 1449.
##  3 Western Australia Food retailing ETS    2023 Mar   t(N(7.4, 0.001)) 1588.
##  4 Western Australia Food retailing ETS    2023 Apr  t(N(7.3, 0.0011)) 1527.
##  5 Western Australia Food retailing ETS    2023 May  t(N(7.3, 0.0012)) 1545.
##  6 Western Australia Food retailing ETS    2023 Jun  t(N(7.3, 0.0013)) 1484.
##  7 Western Australia Food retailing ETS    2023 Jul  t(N(7.3, 0.0014)) 1537.
##  8 Western Australia Food retailing ETS    2023 Aug  t(N(7.4, 0.0016)) 1559.
##  9 Western Australia Food retailing ETS    2023 Sep  t(N(7.3, 0.0017)) 1536.
## 10 Western Australia Food retailing ETS    2023 Oct  t(N(7.4, 0.0018)) 1607.
## # â„¹ 14 more rows
…
